{
    "KPlugin": {
        "Description": "Navigation Through Windows",
        "Description[ca@valencia]": "Navegació per les finestres",
        "Description[ca]": "Navegació per les finestres",
        "Description[es]": "Navegación a través de las ventanas",
        "Description[fr]": "Navigation parmi les fenêtres",
        "Description[ko]": "창간 탐색",
        "Description[nl]": "Navigatie door vensters",
        "Description[pl]": "Przełączanie pomiędzy oknami",
        "Description[pt]": "Navegação pelas Janelas",
        "Description[sk]": "Navigácia cez okná",
        "Description[sl]": "Krmarjenje skozi okna",
        "Description[sv]": "Navigering via fönster",
        "Description[ta]": "சாளரங்களுக்கிடையே உலாவல்",
        "Description[tr]": "Pencereler Arası Dolaşım",
        "Description[uk]": "Навігація вікнами",
        "Description[vi]": "Điều hướng qua các cửa sổ",
        "Description[x-test]": "xxNavigation Through Windowsxx",
        "Description[zh_CN]": "配置窗口切换器选项",
        "Icon": "preferences-system-tabbox",
        "Name": "Task Switcher",
        "Name[ca@valencia]": "Commutador de tasques",
        "Name[ca]": "Commutador de tasques",
        "Name[es]": "Selector de tareas",
        "Name[fr]": "Sélecteur de tâches",
        "Name[ko]": "작업 전환기",
        "Name[nl]": "Taakschakelaar",
        "Name[pl]": "Przełącznik zadań",
        "Name[pt]": "Selector de Tarefas",
        "Name[sk]": "Prepínač úloh",
        "Name[sl]": "Preklopnik opravil",
        "Name[sv]": "Aktivitetsbyte",
        "Name[ta]": "பணி மாற்றி",
        "Name[tr]": "Görev Değiştirici",
        "Name[uk]": "Перемикання задач",
        "Name[vi]": "Trình chuyển tác vụ",
        "Name[x-test]": "xxTask Switcherxx",
        "Name[zh_CN]": "任务切换器",
        "ServiceTypes": [
            "KCModule"
        ]
    },
    "X-DocPath": "kcontrol/kwintabbox/index.html",
    "X-KDE-Keywords": "window,windows,switcher,window switcher,switching,window switching,alttab,alt-tab,alt+tab,alt tab,apps changer,application changer,app,task,switch,task switcher",
    "X-KDE-Keywords[ar]": "نافذة,نوافذ,مبدل,مبدل نوافذ,تاب,ألت تاب,مغير التطبيقات,مهمة,مهام",
    "X-KDE-Keywords[az]": "window,windows,switcher,window switcher,switching,window switching,alttab,alt-tab,alt+tab,alt tab,apps changer,application changer,app,task,switch,task switcher,pəncərə,pəncərələr,dəyişdirici,pəncərə dəyişdircisi,pəncərədən-pəncərəyə keçid,tətbiqlər,tətbiq dəyişdirici,tətbiq,tapşırıq,tapşırıq dəyişdirici",
    "X-KDE-Keywords[ca@valencia]": "finestra,finestres,commutador,commutador de finestres,commutació,commutació de finestres,alttab,alt-tab,alt+tab,alt tab,canviador d'apps,canviador d'aplicacions,aplicació,app,tasca,commutació,commutador de tasques",
    "X-KDE-Keywords[ca]": "finestra,finestres,commutador,commutador de finestres,commutació,commutació de finestres,alttab,alt-tab,alt+tab,alt tab,canviador d'apps,canviador d'aplicacions,aplicació,app,tasca,commutació,commutador de tasques",
    "X-KDE-Keywords[en_GB]": "window,windows,switcher,window switcher,switching,window switching,alttab,alt-tab,alt+tab,alt tab,apps changer,application changer,app,task,switch,task switcher",
    "X-KDE-Keywords[es]": "ventana,ventanas,conmutador,conmutador de ventanas,conmutación,conmutación de ventanas,alttab,alt-tab,alt+tab,alt tab,selector de aplicaciones,cambiador de aplicaciones,app,tarea,selector,cambiador,selector de tarea,cambiador de tarea",
    "X-KDE-Keywords[fi]": "ikkuna,ikkunat,vaihtaja,vaihto,valitsin,ikkunan vaihtaja,tehtävänvalitsin,ikkunanvalitsin,vaihtaminen,ikkunan vaihtaminen,ikkunan vaihto,alttab,alt-tab,alt+tab,alt tab,altsarkain,alt-sarkain,alt+sarkain,alt sarkain,sovellusvaihto,sovellusvaihtaja",
    "X-KDE-Keywords[fr]": "fenêtre, fenêtres, commutateur, commutateur de fenêtres, commutation, commutation de fenêtre, alttab, alt-tab, alt+tab, alt tab, commutateur d'applications, commutateur d'apps, app, tâche, sélecteur, commutateur de tâches",
    "X-KDE-Keywords[hu]": "ablak,ablakok,váltó,ablakváltó,váltás,ablakváltás,alttab,alt-tab,alt+tab,alt tab,alkalmazásváltó,alkalmazásváltó,alkalmazás,feladat,váltó,feladatváltó",
    "X-KDE-Keywords[ia]": "fenestra,fenestras,commutator,commutator de fenestra,commutar,commutar fenestra,alttab,alt-tab,alt+tab,alt tab, modificator de application, app, carga, commuta, commutator de carga",
    "X-KDE-Keywords[id]": "window,window,pengalih,pengalih window,pengalihan,pengalihan window,alttab,alt-tab,alt+tab,alt tab,pengubah apl,pengubah aplikasi,apl,tugas,alih,pengalih tugas",
    "X-KDE-Keywords[it]": "finestra,finestre,selettore,selettore delle finestre,selezione,selezione delle finestre,alttab,alt-tab,alt+tab,alt tab,selettore delle applicazioni,cambio applicazione,applicazione,attività,selettore delle attività",
    "X-KDE-Keywords[ko]": "window,windows,switcher,window switcher,switching,window switching,alttab,alt-tab,alt+tab,alt tab,apps changer,application changer,app,task,switch,task switcher,창,창 전환,전환기,앱 전환,프로그램 전환,작업,전환,작업 전환기",
    "X-KDE-Keywords[nl]": "venster,vensters,schakelaar,vensterwisselaar,wisseling,vensterwisseling,alttab,alt-tab,alt+tab,alt-tab,toepassingswisselaar,app,toepassing,taak,schakelaar,takenschakelaar",
    "X-KDE-Keywords[nn]": "vindauge,vindauge,byte,vindaugsbytar,byte,vindaugsbytar,alttab,alt-tab,alt+tab,alt tab,appbytar,programbytar,appvekslar,programvekslar,app,oppgåve,byte,veksla,oppgåvebytar,oppgåvevekslar",
    "X-KDE-Keywords[pl]": "okno,okna,przełączanie,przełączanie okien,alttab,alt-tab,alt+tab,alt tab,zmieniacz aplikacji,zmieniacz aplikacji,apka,zadanie,przełącznik,przełącznik zadań",
    "X-KDE-Keywords[pt]": "janela,janelas,selector,selector de janelas,mudar,mudança de janela,alttab,alt-tab,alt+tab,alt tab",
    "X-KDE-Keywords[pt_BR]": "janela,janelas,seletor,seletor de janelas,mudar,mudança de janela,alttab,alt-tab,alt+tab,alt tab,alterador de apps,alterador de aplicativo,app,aplicativo,aplicação tarefa,alterar,alternar,alterador de tarefa",
    "X-KDE-Keywords[ru]": "window,windows,switcher,window switcher,switching,window switching,alttab,alt-tab,alt+tab,alt tab,apps changer,application changer,app,task,switch,task switcher,окно,окна,переключатель,переключатель окон,переключение,переключение окон",
    "X-KDE-Keywords[sk]": "okno,okná,prepínač,prepínač okien,prepínanie,prepínanie okien,alttab, alt-tab,alt+tab,alt tab,prepínač aplikácií,prepínač aplikácií,aplikácia,úloha,prepínač, prepínač úloh",
    "X-KDE-Keywords[sl]": "okno,okna,preklopnik,preklopnik oken,preklapljanje med okni,alttab,alt-tab,alt+tab,alt tab,spreminjevalnik aplikacij,aplikacija,naloga,preklop,preklopnik nalog",
    "X-KDE-Keywords[sv]": "fönster,byte,fönsterbytare,byta,fönsterbyte,alttabulator,alt-tabulator,alt+tabulator,alt tabulator,programbyte,program,aktivitet,byta,aktivitetsbyte",
    "X-KDE-Keywords[ta]": "window,windows,switcher,window switcher,switching,window switching,alttab,alt-tab,alt+tab,alt tab,apps changer,application changer,app,task,switch,task switcher, சாளரம், சாளரங்கள், மாற்றி, சாளர மாற்றி, பணி, செயலி, பயன்பாடு",
    "X-KDE-Keywords[tr]": "pencere,pencereler,değiştirici,pencere seçici,değiştirme,pencere seçimi,alttab,alt-tab,alt+tab,alt tab,uygulama değiştirici,uygulama değiştirici,uygulama,görev,değiştir,görev değiştirici",
    "X-KDE-Keywords[uk]": "window,windows,switcher,window switcher,switching,window switching,alttab,alt-tab,alt+tab,alt tab,apps changer,application changer,app,task,switch,task switcher,вікно,вікна,перемикач,перемикач вікон,перемикання,перемикання вікон,альттаб,альт-таб,альт+таб,зміна програми,змінити програму,програма,завдання,перемикання,перемкнутися,перемикання завдань",
    "X-KDE-Keywords[vi]": "window,windows,switcher,window switcher,switching,window switching,alttab,alt-tab,alt+tab,alt tab,apps changer,application changer,app,task,switch,task switcher,cửa sổ,trình chuyển,trình chuyển cửa sổ,chuyển,chuyển cửa sổ,trình chuyển ứng dụng,ứng dụng,tác vụ,chuyển,trình chuyển tác vụ",
    "X-KDE-Keywords[x-test]": "xxwindowxx,xxwindowsxx,xxswitcherxx,xxwindow switcherxx,xxswitchingxx,xxwindow switchingxx,xxalttabxx,xxalt-tabxx,xxalt+tabxx,xxalt tabxx,xxapps changerxx,xxapplication changerxx,xxappxx,xxtaskxx,xxswitchxx,xxtask switcherxx",
    "X-KDE-Keywords[zh_CN]": "window,windows,switcher,window switcher,switching,window switching,alttab,alt-tab,alt+tab,alt tab,apps changer,application changer,app,task,switch,task switcher,窗口,切换器,窗口切换器,切换,窗口切换,应用切换器,应用程序切换器,应用,应用程序,任务,任务切换器",
    "X-KDE-ParentApp": "kcontrol",
    "X-KDE-System-Settings-Parent-Category": "windowmanagement",
    "X-KDE-Weight": 60
}
