{
    "KPlugin": {
        "Category": "Tools",
        "Description": "Display KWin's performance in the corner of the screen",
        "Description[ar]": "اعرض أداء نوافذ.ك في زاوية من زوايا الشاشة",
        "Description[az]": "Ekranın küncündə qrafikanın effektlərin saniyədəki kadrlarının sayını göstərir",
        "Description[ca@valencia]": "Mostra el rendiment de KWin al cantó de la pantalla",
        "Description[ca]": "Mostra el rendiment del KWin a la cantonada de la pantalla",
        "Description[cs]": "Zobrazuje výkon KWin v rohu obrazovky",
        "Description[de]": "Zeigt die Leistung von KWin in der Bildschirmecke an",
        "Description[en_GB]": "Display KWin's performance in the corner of the screen",
        "Description[es]": "Mostrar el rendimiento de KWin en una esquina de la pantalla",
        "Description[fi]": "Näyttää KWinin suorituskyvyn näytön kulmassa",
        "Description[fr]": "Afficher les performances de KWin dans le coin de l'écran",
        "Description[hu]": "A KWin teljesítményének kijelzése a képernyő sarkában",
        "Description[ia]": "Monstra le rendimento de KWin in le angulo del schermo",
        "Description[id]": "Menampilkan kinerja KWin di pojok layar",
        "Description[it]": "Visualizza le prestazioni di KWin in un angolo dello schermo",
        "Description[ko]": "KWin의 성능을 화면 구석에 표시합니다",
        "Description[nl]": "Toont de prestaties van KWin in de hoek van het scherm",
        "Description[nn]": "Vis KWin-ytinga i eit hjørne av skjermen",
        "Description[pl]": "Wyświetla wydajność KWin w narożniku ekranu",
        "Description[pt]": "Mostrar a performance do KWin no canto do ecrã",
        "Description[pt_BR]": "Mostra o desempenho do KWin no canto da tela",
        "Description[ro]": "Afișează performanța KWin în colțul ecranului",
        "Description[ru]": "Индикатор производительности эффектов в углу экрана",
        "Description[sk]": "Zobrazí výkon KWin v rohu obrazovky",
        "Description[sl]": "Prikaz performance Kwina v kotu zaslona",
        "Description[sv]": "Visa prestanda för Kwin i hörnet av skärmen",
        "Description[ta]": "திரையின் ஓர் ஓரத்தில் கேவின்னின் செயல்திறனை காட்டும்",
        "Description[tr]": "KWin başarımını pencerenin bir köşesinde görüntüle",
        "Description[uk]": "Показ параметра швидкодії KWin (частоти кадрів) у куті екрана",
        "Description[vi]": "Hiện hiệu suất hoạt động của KWin ở góc màn hình",
        "Description[x-test]": "xxDisplay KWin's performance in the corner of the screenxx",
        "Description[zh_CN]": "在屏幕一角显示 KWin 的每秒帧数图表",
        "EnabledByDefault": false,
        "Id": "showfps",
        "License": "GPL",
        "Name": "Show FPS",
        "Name[ar]": "أظهر عدد الإطارات بالثانية",
        "Name[az]": "FPS göstərilsin",
        "Name[ca@valencia]": "Mostra els FPS",
        "Name[ca]": "Mostra els FPS",
        "Name[cs]": "Zobrazit FPS",
        "Name[de]": "Bilder pro Sekunde anzeigen",
        "Name[en_GB]": "Show FPS",
        "Name[es]": "Mostrar FPS",
        "Name[fi]": "FPS-näyttö",
        "Name[fr]": "Afficher le nombre de trames par seconde",
        "Name[hu]": "Képkockaszámláló",
        "Name[ia]": "Monstra FPS",
        "Name[it]": "Mostra fotogrammi al secondo",
        "Name[ko]": "FPS 표시",
        "Name[nl]": "FPS tonen",
        "Name[nn]": "Vis talet på bilete per sekund",
        "Name[pl]": "Pokaż liczbę klatek na sekundę",
        "Name[pt]": "Mostrar as IPS",
        "Name[pt_BR]": "Mostrar FPS",
        "Name[ro]": "Arată CPS",
        "Name[ru]": "График производительности",
        "Name[sk]": "Zobraziť FPS",
        "Name[sl]": "Prikaži št. slik sekundi",
        "Name[sv]": "Visa ramar/s",
        "Name[ta]": "FPS-ஐ காட்டு",
        "Name[tr]": "FPS'yi Göster",
        "Name[uk]": "Показ частоти кадрів",
        "Name[vi]": "Hiện FPS",
        "Name[x-test]": "xxShow FPSxx",
        "Name[zh_CN]": "显示每秒帧数"
    },
    "X-KDE-ConfigModule": "kwin_showfps_config"
}
